{
    "rabbit_version": "3.8.16",
    "rabbitmq_version": "3.8.16",
    "product_name": "RabbitMQ",
    "product_version": "3.8.16",
    "users": [
        {
            "name": "admin",
            "password_hash": "tRzezDQp5Xc63TaEVYfLiowH9XuKVIHEaqiIcP4Y+m6/y9zg",
            "hashing_algorithm": "rabbit_password_hashing_sha256",
            "tags": "administrator",
            "limits": {}
        },
        {
            "name": "guest",
            "password_hash": "MNOFrF/4VmrpLUJ0hVsVMp98KS9b1kzxxXzWruCqkwOW0RCg",
            "hashing_algorithm": "rabbit_password_hashing_sha256",
            "tags": "administrator",
            "limits": {}
        }
    ],
    "vhosts": [
        {
            "name": "/"
        }
    ],
    "permissions": [
        {
            "user": "guest",
            "vhost": "/",
            "configure": ".*",
            "write": ".*",
            "read": ".*"
        },
        {
            "user": "admin",
            "vhost": "/",
            "configure": ".*",
            "write": ".*",
            "read": ".*"
        }
    ],
    "topic_permissions": [
        {
            "user": "admin",
            "vhost": "/",
            "exchange": "",
            "write": ".*",
            "read": ".*"
        }
    ],
    "parameters": [],
    "global_parameters": [
        {
            "name": "cluster_name",
            "value": "rabbit@my-rabbit"
        },
        {
            "name": "internal_cluster_id",
            "value": "rabbitmq-cluster-id-xNeB7w1SW2bmASZrfg_9vQ"
        }
    ],
    "policies": [],
    "queues": [],
    "exchanges": [
        {
            "name": "Notifier.Fanout",
            "vhost": "/",
            "type": "fanout",
            "durable": true,
            "auto_delete": false,
            "internal": false,
            "arguments": {}
        }
    ],
    "bindings": []
}